rtl/sim/GHDL/tb_core/core.vcd
$date
  Fri Feb 02 12:38:56 2024
$end
$version
  GHDL v0
$end
$timescale
  1 fs
$end
$scope module standard $end
$upscope $end
$scope module std_logic_1164 $end
$upscope $end
$scope module numeric_std $end
$upscope $end
$scope module testbench_core $end
$var reg 1 ! i_clk $end
$var reg 1 " i_en $end
$var reg 1 # i_rst_n $end
$var reg 8 $ i_k0[7:0] $end
$var reg 8 % i_k1[7:0] $end
$var reg 8 & i_k2[7:0] $end
$var reg 8 ' i_k3[7:0] $end
$var reg 8 ( i_k4[7:0] $end
$var reg 8 ) i_s0[7:0] $end
$var reg 8 * i_s1[7:0] $end
$var reg 8 + i_s2[7:0] $end
$var reg 8 , i_s3[7:0] $end
$var reg 8 - i_s4[7:0] $end
$var reg 18 . i_sub[17:0] $end
$var reg 1 / o_valid $end
$var reg 18 0 o_res[17:0] $end
$scope module dut $end
$var reg 1 1 i_clk $end
$var reg 1 2 i_en $end
$var reg 1 3 i_rst_n $end
$var reg 8 4 i_k0[7:0] $end
$var reg 8 5 i_k1[7:0] $end
$var reg 8 6 i_k2[7:0] $end
$var reg 8 7 i_k3[7:0] $end
$var reg 8 8 i_k4[7:0] $end
$var reg 8 9 i_s0[7:0] $end
$var reg 8 : i_s1[7:0] $end
$var reg 8 ; i_s2[7:0] $end
$var reg 8 < i_s3[7:0] $end
$var reg 8 = i_s4[7:0] $end
$var reg 18 > i_sub[17:0] $end
$var reg 1 ? o_valid $end
$var reg 18 @ o_res[17:0] $end
$var reg 9 A k4_p_reg[8:0] $end
$var reg 9 B s4_p_reg[8:0] $end
$var reg 9 C mac0_a1[8:0] $end
$var reg 9 D mac0_b1[8:0] $end
$var reg 9 E mac0_a2[8:0] $end
$var reg 9 F mac0_b2[8:0] $end
$var reg 44 G mac0_c[43:0] $end
$var reg 44 H mac0_p[43:0] $end
$var reg 9 I mac1_a1[8:0] $end
$var reg 9 J mac1_b1[8:0] $end
$var reg 9 K mac1_a2[8:0] $end
$var reg 9 L mac1_b2[8:0] $end
$var reg 44 M mac1_p[43:0] $end
$var reg 9 N mac2_a2[8:0] $end
$var reg 9 O mac2_b2[8:0] $end
$var reg 44 P mac2_p[43:0] $end
$scope module mac0 $end
$var reg 9 Q i_a1[8:0] $end
$var reg 9 R i_b1[8:0] $end
$var reg 9 S i_a2[8:0] $end
$var reg 9 T i_b2[8:0] $end
$var reg 44 U i_c[43:0] $end
$var reg 44 V i_d[43:0] $end
$var reg 1 W i_clk $end
$var reg 44 X o_p[43:0] $end
$upscope $end
$scope module mac1 $end
$var reg 9 Y i_a1[8:0] $end
$var reg 9 Z i_b1[8:0] $end
$var reg 9 [ i_a2[8:0] $end
$var reg 9 \ i_b2[8:0] $end
$var reg 44 ] i_c[43:0] $end
$var reg 44 ^ i_d[43:0] $end
$var reg 1 _ i_clk $end
$var reg 44 ` o_p[43:0] $end
$upscope $end
$scope module mac2 $end
$var reg 9 a i_a1[8:0] $end
$var reg 9 b i_b1[8:0] $end
$var reg 9 c i_a2[8:0] $end
$var reg 9 d i_b2[8:0] $end
$var reg 44 e i_c[43:0] $end
$var reg 44 f i_d[43:0] $end
$var reg 1 g i_clk $end
$var reg 44 h o_p[43:0] $end
$upscope $end
$upscope $end
$upscope $end
$enddefinitions $end
#0
0!
0"
0#
b00000000 $
b00000000 %
b00000000 &
b00000000 '
b00000000 (
b00000000 )
b00000000 *
b00000000 +
b00000000 ,
b00000000 -
b000000000000000000 .
U/
bUUUUUUUUUUUUUUUUUU 0
01
02
03
b00000000 4
b00000000 5
b00000000 6
b00000000 7
b00000000 8
b00000000 9
b00000000 :
b00000000 ;
b00000000 <
b00000000 =
b000000000000000000 >
U?
bUUUUUUUUUUUUUUUUUU @
bUUUUUUUUU A
bUUUUUUUUU B
bUUUUUUUUU C
bUUUUUUUUU D
bUUUUUUUUU E
bUUUUUUUUU F
bUUUUUUUUUUUUUUUUUUUUUUUUUUUUUUUUUUUUUUUUUUUU G
bUUUUUUUUUUUUUUUUUUUUUUUUUUUUUUUUUUUUUUUUUUUU H
bUUUUUUUUU I
bUUUUUUUUU J
bUUUUUUUUU K
bUUUUUUUUU L
bUUUUUUUUUUUUUUUUUUUUUUUUUUUUUUUUUUUUUUUUUUUU M
bUUUUUUUUU N
bUUUUUUUUU O
bUUUUUUUUUUUUUUUUUUUUUUUUUUUUUUUUUUUUUUUUUUUU P
bUUUUUUUUU Q
bUUUUUUUUU R
bUUUUUUUUU S
bUUUUUUUUU T
bUUUUUUUUUUUUUUUUUUUUUUUUUUUUUUUUUUUUUUUUUUUU U
b00000000000000000000000000000000000000000000 V
0W
bUUUUUUUUUUUUUUUUUUUUUUUUUUUUUUUUUUUUUUUUUUUU X
bUUUUUUUUU Y
bUUUUUUUUU Z
bUUUUUUUUU [
bUUUUUUUUU \
b00000000000000000000000000000000000000000100 ]
b00000000000000000000000000000000000000000000 ^
0_
bUUUUUUUUUUUUUUUUUUUUUUUUUUUUUUUUUUUUUUUUUUUU `
b000000000 a
b000000000 b
bUUUUUUUUU c
bUUUUUUUUU d
bUUUUUUUUUUUUUUUUUUUUUUUUUUUUUUUUUUUUUUUUUUUU e
bUUUUUUUUUUUUUUUUUUUUUUUUUUUUUUUUUUUUUUUUUUUU f
0g
bUUUUUUUUUUUUUUUUUUUUUUUUUUUUUUUUUUUUUUUUUUUU h
#2000000
1!
0/
b000000000000000000 0
11
0?
b000000000000000000 @
b000000000 A
b000000000 B
b000000000 C
b000000000 D
b000000000 E
b000000000 F
b00000000000000000000000000000000000000000000 G
bXXXXXXXXXXXXXXXXXXXXXXXXXXXXXXXXXXXXXXXXXXXX H
b000000000 I
b000000000 J
b000000000 K
b000000000 L
bXXXXXXXXXXXXXXXXXXXXXXXXXXXXXXXXXXXXXXXXXXXX M
b000000000 N
b000000000 O
bXXXXXXXXXXXXXXXXXXXXXXXXXXXXXXXXXXXXXXXXXXXX P
b000000000 Q
b000000000 R
b000000000 S
b000000000 T
b00000000000000000000000000000000000000000000 U
1W
bXXXXXXXXXXXXXXXXXXXXXXXXXXXXXXXXXXXXXXXXXXXX X
b000000000 Y
b000000000 Z
b000000000 [
b000000000 \
1_
bXXXXXXXXXXXXXXXXXXXXXXXXXXXXXXXXXXXXXXXXXXXX `
b000000000 c
b000000000 d
bXXXXXXXXXXXXXXXXXXXXXXXXXXXXXXXXXXXXXXXXXXXX e
bXXXXXXXXXXXXXXXXXXXXXXXXXXXXXXXXXXXXXXXXXXXX f
1g
bXXXXXXXXXXXXXXXXXXXXXXXXXXXXXXXXXXXXXXXXXXXX h
#4000000
0!
01
0W
0_
0g
#6000000
1!
11
b00000000000000000000000000000000000000000000 H
b00000000000000000000000000000000000000000100 M
1W
b00000000000000000000000000000000000000000000 X
1_
b00000000000000000000000000000000000000000100 `
b00000000000000000000000000000000000000000000 e
b00000000000000000000000000000000000000000100 f
1g
#8000000
0!
01
0W
0_
0g
#10000000
1!
11
b00000000000000000000000000000000000000000100 P
1W
1_
1g
b00000000000000000000000000000000000000000100 h
#12000000
0!
01
0W
0_
0g
#14000000
1!
11
1W
1_
1g
#16000000
0!
1"
1#
b01111111 $
b00001010 )
01
12
13
b01111111 4
b00001010 9
0W
0_
0g
#18000000
1!
1/
11
1?
b001111111 C
b000001010 D
b001111111 Q
b000001010 R
1W
1_
1g
#20000000
0!
01
0W
0_
0g
#22000000
1!
11
b00000000000000000000000000000000010011110110 H
1W
b00000000000000000000000000000000010011110110 X
1_
b00000000000000000000000000000000010011110110 e
1g
#24000000
0!
b01111111 %
b00001010 *
01
b01111111 5
b00001010 :
0W
0_
0g
#26000000
1!
11
b001111111 E
b000001010 F
b00000000000000000000000000000000010011111010 P
b001111111 S
b000001010 T
1W
1_
1g
b00000000000000000000000000000000010011111010 h
#28000000
0!
01
0W
0_
0g
#30000000
1!
b000000000010011111 0
11
b000000000010011111 @
b00000000000000000000000000000000100111101100 H
1W
b00000000000000000000000000000000100111101100 X
1_
b00000000000000000000000000000000100111101100 e
1g
#32000000
0!
b01111111 &
b00001010 +
01
b01111111 6
b00001010 ;
0W
0_
0g
#34000000
1!
11
b001111111 I
b000001010 J
b00000000000000000000000000000000100111110000 P
1W
b001111111 Y
b000001010 Z
1_
1g
b00000000000000000000000000000000100111110000 h
#36000000
0!
01
0W
0_
0g
#38000000
1!
b000000000100111110 0
11
b000000000100111110 @
b00000000000000000000000000000000010011111010 M
1W
1_
b00000000000000000000000000000000010011111010 `
b00000000000000000000000000000000010011111010 f
1g
#40000000
0!
b01111111 '
b00001010 ,
01
b01111111 7
b00001010 <
0W
0_
0g
#42000000
1!
11
b001111111 K
b000001010 L
b00000000000000000000000000000000111011100110 P
1W
b001111111 [
b000001010 \
1_
1g
b00000000000000000000000000000000111011100110 h
#44000000
0!
01
0W
0_
0g
#46000000
1!
b000000000111011100 0
11
b000000000111011100 @
b00000000000000000000000000000000100111110000 M
1W
1_
b00000000000000000000000000000000100111110000 `
b00000000000000000000000000000000100111110000 f
1g
#48000000
0!
b01111111 (
b00001010 -
01
b01111111 8
b00001010 =
0W
0_
0g
#50000000
1!
11
b001111111 A
b000001010 B
b00000000000000000000000000000001001111011100 P
1W
1_
1g
b00000000000000000000000000000001001111011100 h
#52000000
0!
01
0W
0_
0g
#54000000
1!
b000000001001111011 0
11
b000000001001111011 @
b001111111 N
b000001010 O
1W
1_
b001111111 c
b000001010 d
1g
#56000000
0!
b000000000001111111 .
01
b000000000001111111 >
0W
0_
0g
#58000000
1!
11
b00000000000000000000000000000000000001111111 G
b00000000000000000000000000000001100011010010 P
b00000000000000000000000000000000000001111111 U
1W
1_
1g
b00000000000000000000000000000001100011010010 h
#60000000
0!
01
0W
0_
0g
#62000000
1!
b000000001100011010 0
11
b000000001100011010 @
b00000000000000000000000000000000101001101011 H
1W
b00000000000000000000000000000000101001101011 X
1_
b00000000000000000000000000000000101001101011 e
1g
#64000000
0!
01
0W
0_
0g
#66000000
1!
11
b00000000000000000000000000000001100101010001 P
1W
1_
1g
b00000000000000000000000000000001100101010001 h
#68000000
0!
01
0W
0_
0g
#70000000
1!
b000000001100101010 0
11
b000000001100101010 @
1W
1_
1g
#72000000
0!
01
0W
0_
0g
#74000000
1!
11
1W
1_
1g
#76000000
0!
01
0W
0_
0g
#78000000
1!
11
1W
1_
1g
#80000000
0!
b00000000 $
b00000000 %
b00000000 &
b00000000 '
b00000000 (
b00000000 )
b00000000 *
b00000000 +
b00000000 ,
b00000000 -
b000000000000000000 .
01
b00000000 4
b00000000 5
b00000000 6
b00000000 7
b00000000 8
b00000000 9
b00000000 :
b00000000 ;
b00000000 <
b00000000 =
b000000000000000000 >
0W
0_
0g
#82000000
1!
11
b000000000 A
b000000000 B
b000000000 C
b000000000 D
b000000000 E
b000000000 F
b00000000000000000000000000000000000000000000 G
b000000000 I
b000000000 J
b000000000 K
b000000000 L
b000000000 Q
b000000000 R
b000000000 S
b000000000 T
b00000000000000000000000000000000000000000000 U
1W
b000000000 Y
b000000000 Z
b000000000 [
b000000000 \
1_
1g
#84000000
0!
01
0W
0_
0g
#86000000
1!
11
b00000000000000000000000000000000000000000000 H
b00000000000000000000000000000000000000000100 M
b000000000 N
b000000000 O
1W
b00000000000000000000000000000000000000000000 X
1_
b00000000000000000000000000000000000000000100 `
b000000000 c
b000000000 d
b00000000000000000000000000000000000000000000 e
b00000000000000000000000000000000000000000100 f
1g
#88000000
0!
01
0W
0_
0g
#90000000
1!
11
b00000000000000000000000000000000000000000100 P
1W
1_
1g
b00000000000000000000000000000000000000000100 h
#92000000
0!
01
0W
0_
0g
#94000000
1!
b000000000000000000 0
11
b000000000000000000 @
1W
1_
1g
